Starting Not Power Aware in Cloudsim3.0 by Linda J...
Initialising...
ADD PEs executed!!!
Task0 length=100000
SUCCESSFULLY Cloudletlist created :)
Starting CloudSim version 3.0
Datacenter_0 is starting...
Broker is starting...
Entities started.
0.0: Broker: Cloud Resource List received with 1 resource(s)
0.0: Broker: Trying to Create VM #0 in Datacenter_0
0.00: VM #0 has been allocated to the host #0
0.1: Broker: VM #0 has been created in Datacenter #2, Host #0
0.1: Broker: Sending cloudlet 0 to VM #0


5.10: Host #0
5.10: Host #0 utilization is 0.00%
5.10: Host #0 energy is 1275.00 W*sec
5.10: Host #1
5.10: Host #1 utilization is 0.00%
5.10: Host #1 energy is 1275.00 W*sec

5.10: Consumed energy is 2550.00 W*sec



--------------------------------------------------------------



5.10: Host #0
5.10: [Host #0] Total allocated MIPS for VM #0 (Host #0) is 1000.00, was requested 1000.00 out of total 1000.00 (100.00%)
5.10: [Host #0] MIPS for VM #0 by PEs (1 * 1000.0). PE #0: 1000.00.

5.10: Host #1



10.10: Host #0
10.10: Host #0 utilization is 100.00%
10.10: Host #0 energy is 1250.00 W*sec
10.10: Host #1
10.10: Host #1 utilization is 0.00%
10.10: Host #1 energy is 1250.00 W*sec

10.10: Consumed energy is 2500.00 W*sec



--------------------------------------------------------------



10.10: Host #0
10.10: [Host #0] Total allocated MIPS for VM #0 (Host #0) is 1000.00, was requested 1000.00 out of total 1000.00 (100.00%)
10.10: [Host #0] MIPS for VM #0 by PEs (1 * 1000.0). PE #0: 1000.00.

10.10: Host #1



15.10: Host #0
15.10: Host #0 utilization is 100.00%
15.10: Host #0 energy is 1250.00 W*sec
15.10: Host #1
15.10: Host #1 utilization is 0.00%
15.10: Host #1 energy is 1250.00 W*sec

15.10: Consumed energy is 2500.00 W*sec



--------------------------------------------------------------



15.10: Host #0
15.10: [Host #0] Total allocated MIPS for VM #0 (Host #0) is 1000.00, was requested 1000.00 out of total 1000.00 (100.00%)
15.10: [Host #0] MIPS for VM #0 by PEs (1 * 1000.0). PE #0: 1000.00.

15.10: Host #1



20.10: Host #0
20.10: Host #0 utilization is 100.00%
20.10: Host #0 energy is 1250.00 W*sec
20.10: Host #1
20.10: Host #1 utilization is 0.00%
20.10: Host #1 energy is 1250.00 W*sec

20.10: Consumed energy is 2500.00 W*sec



--------------------------------------------------------------



20.10: Host #0
20.10: [Host #0] Total allocated MIPS for VM #0 (Host #0) is 1000.00, was requested 1000.00 out of total 1000.00 (100.00%)
20.10: [Host #0] MIPS for VM #0 by PEs (1 * 1000.0). PE #0: 1000.00.

20.10: Host #1



25.10: Host #0
25.10: Host #0 utilization is 100.00%
25.10: Host #0 energy is 1250.00 W*sec
25.10: Host #1
25.10: Host #1 utilization is 0.00%
25.10: Host #1 energy is 1250.00 W*sec

25.10: Consumed energy is 2500.00 W*sec



--------------------------------------------------------------



25.10: Host #0
25.10: [Host #0] Total allocated MIPS for VM #0 (Host #0) is 1000.00, was requested 1000.00 out of total 1000.00 (100.00%)
25.10: [Host #0] MIPS for VM #0 by PEs (1 * 1000.0). PE #0: 1000.00.

25.10: Host #1



30.10: Host #0
30.10: Host #0 utilization is 100.00%
30.10: Host #0 energy is 1250.00 W*sec
30.10: Host #1
30.10: Host #1 utilization is 0.00%
30.10: Host #1 energy is 1250.00 W*sec

30.10: Consumed energy is 2500.00 W*sec



--------------------------------------------------------------



30.10: Host #0
30.10: [Host #0] Total allocated MIPS for VM #0 (Host #0) is 1000.00, was requested 1000.00 out of total 1000.00 (100.00%)
30.10: [Host #0] MIPS for VM #0 by PEs (1 * 1000.0). PE #0: 1000.00.

30.10: Host #1



35.10: Host #0
35.10: Host #0 utilization is 100.00%
35.10: Host #0 energy is 1250.00 W*sec
35.10: Host #1
35.10: Host #1 utilization is 0.00%
35.10: Host #1 energy is 1250.00 W*sec

35.10: Consumed energy is 2500.00 W*sec



--------------------------------------------------------------



35.10: Host #0
35.10: [Host #0] Total allocated MIPS for VM #0 (Host #0) is 1000.00, was requested 1000.00 out of total 1000.00 (100.00%)
35.10: [Host #0] MIPS for VM #0 by PEs (1 * 1000.0). PE #0: 1000.00.

35.10: Host #1



40.10: Host #0
40.10: Host #0 utilization is 100.00%
40.10: Host #0 energy is 1250.00 W*sec
40.10: Host #1
40.10: Host #1 utilization is 0.00%
40.10: Host #1 energy is 1250.00 W*sec

40.10: Consumed energy is 2500.00 W*sec



--------------------------------------------------------------



40.10: Host #0
40.10: [Host #0] Total allocated MIPS for VM #0 (Host #0) is 1000.00, was requested 1000.00 out of total 1000.00 (100.00%)
40.10: [Host #0] MIPS for VM #0 by PEs (1 * 1000.0). PE #0: 1000.00.

40.10: Host #1



45.10: Host #0
45.10: Host #0 utilization is 100.00%
45.10: Host #0 energy is 1250.00 W*sec
45.10: Host #1
45.10: Host #1 utilization is 0.00%
45.10: Host #1 energy is 1250.00 W*sec

45.10: Consumed energy is 2500.00 W*sec



--------------------------------------------------------------



45.10: Host #0
45.10: [Host #0] Total allocated MIPS for VM #0 (Host #0) is 1000.00, was requested 1000.00 out of total 1000.00 (100.00%)
45.10: [Host #0] MIPS for VM #0 by PEs (1 * 1000.0). PE #0: 1000.00.

45.10: Host #1



50.10: Host #0
50.10: Host #0 utilization is 100.00%
50.10: Host #0 energy is 1250.00 W*sec
50.10: Host #1
50.10: Host #1 utilization is 0.00%
50.10: Host #1 energy is 1250.00 W*sec

50.10: Consumed energy is 2500.00 W*sec



--------------------------------------------------------------



50.10: Host #0
50.10: [Host #0] Total allocated MIPS for VM #0 (Host #0) is 1000.00, was requested 1000.00 out of total 1000.00 (100.00%)
50.10: [Host #0] MIPS for VM #0 by PEs (1 * 1000.0). PE #0: 1000.00.

50.10: Host #1



55.10: Host #0
55.10: Host #0 utilization is 100.00%
55.10: Host #0 energy is 1250.00 W*sec
55.10: Host #1
55.10: Host #1 utilization is 0.00%
55.10: Host #1 energy is 1250.00 W*sec

55.10: Consumed energy is 2500.00 W*sec



--------------------------------------------------------------



55.10: Host #0
55.10: [Host #0] Total allocated MIPS for VM #0 (Host #0) is 1000.00, was requested 1000.00 out of total 1000.00 (100.00%)
55.10: [Host #0] MIPS for VM #0 by PEs (1 * 1000.0). PE #0: 1000.00.

55.10: Host #1



60.10: Host #0
60.10: Host #0 utilization is 100.00%
60.10: Host #0 energy is 1250.00 W*sec
60.10: Host #1
60.10: Host #1 utilization is 0.00%
60.10: Host #1 energy is 1250.00 W*sec

60.10: Consumed energy is 2500.00 W*sec



--------------------------------------------------------------



60.10: Host #0
60.10: [Host #0] Total allocated MIPS for VM #0 (Host #0) is 1000.00, was requested 1000.00 out of total 1000.00 (100.00%)
60.10: [Host #0] MIPS for VM #0 by PEs (1 * 1000.0). PE #0: 1000.00.

60.10: Host #1



65.10: Host #0
65.10: Host #0 utilization is 100.00%
65.10: Host #0 energy is 1250.00 W*sec
65.10: Host #1
65.10: Host #1 utilization is 0.00%
65.10: Host #1 energy is 1250.00 W*sec

65.10: Consumed energy is 2500.00 W*sec



--------------------------------------------------------------



65.10: Host #0
65.10: [Host #0] Total allocated MIPS for VM #0 (Host #0) is 1000.00, was requested 1000.00 out of total 1000.00 (100.00%)
65.10: [Host #0] MIPS for VM #0 by PEs (1 * 1000.0). PE #0: 1000.00.

65.10: Host #1



70.10: Host #0
70.10: Host #0 utilization is 100.00%
70.10: Host #0 energy is 1250.00 W*sec
70.10: Host #1
70.10: Host #1 utilization is 0.00%
70.10: Host #1 energy is 1250.00 W*sec

70.10: Consumed energy is 2500.00 W*sec



--------------------------------------------------------------



70.10: Host #0
70.10: [Host #0] Total allocated MIPS for VM #0 (Host #0) is 1000.00, was requested 1000.00 out of total 1000.00 (100.00%)
70.10: [Host #0] MIPS for VM #0 by PEs (1 * 1000.0). PE #0: 1000.00.

70.10: Host #1



75.10: Host #0
75.10: Host #0 utilization is 100.00%
75.10: Host #0 energy is 1250.00 W*sec
75.10: Host #1
75.10: Host #1 utilization is 0.00%
75.10: Host #1 energy is 1250.00 W*sec

75.10: Consumed energy is 2500.00 W*sec



--------------------------------------------------------------



75.10: Host #0
75.10: [Host #0] Total allocated MIPS for VM #0 (Host #0) is 1000.00, was requested 1000.00 out of total 1000.00 (100.00%)
75.10: [Host #0] MIPS for VM #0 by PEs (1 * 1000.0). PE #0: 1000.00.

75.10: Host #1



80.10: Host #0
80.10: Host #0 utilization is 100.00%
80.10: Host #0 energy is 1250.00 W*sec
80.10: Host #1
80.10: Host #1 utilization is 0.00%
80.10: Host #1 energy is 1250.00 W*sec

80.10: Consumed energy is 2500.00 W*sec



--------------------------------------------------------------



80.10: Host #0
80.10: [Host #0] Total allocated MIPS for VM #0 (Host #0) is 1000.00, was requested 1000.00 out of total 1000.00 (100.00%)
80.10: [Host #0] MIPS for VM #0 by PEs (1 * 1000.0). PE #0: 1000.00.

80.10: Host #1



85.10: Host #0
85.10: Host #0 utilization is 100.00%
85.10: Host #0 energy is 1250.00 W*sec
85.10: Host #1
85.10: Host #1 utilization is 0.00%
85.10: Host #1 energy is 1250.00 W*sec

85.10: Consumed energy is 2500.00 W*sec



--------------------------------------------------------------



85.10: Host #0
85.10: [Host #0] Total allocated MIPS for VM #0 (Host #0) is 1000.00, was requested 1000.00 out of total 1000.00 (100.00%)
85.10: [Host #0] MIPS for VM #0 by PEs (1 * 1000.0). PE #0: 1000.00.

85.10: Host #1



90.10: Host #0
90.10: Host #0 utilization is 100.00%
90.10: Host #0 energy is 1250.00 W*sec
90.10: Host #1
90.10: Host #1 utilization is 0.00%
90.10: Host #1 energy is 1250.00 W*sec

90.10: Consumed energy is 2500.00 W*sec



--------------------------------------------------------------



90.10: Host #0
90.10: [Host #0] Total allocated MIPS for VM #0 (Host #0) is 1000.00, was requested 1000.00 out of total 1000.00 (100.00%)
90.10: [Host #0] MIPS for VM #0 by PEs (1 * 1000.0). PE #0: 1000.00.

90.10: Host #1



95.10: Host #0
95.10: Host #0 utilization is 100.00%
95.10: Host #0 energy is 1250.00 W*sec
95.10: Host #1
95.10: Host #1 utilization is 0.00%
95.10: Host #1 energy is 1250.00 W*sec

95.10: Consumed energy is 2500.00 W*sec



--------------------------------------------------------------



95.10: Host #0
95.10: [Host #0] Total allocated MIPS for VM #0 (Host #0) is 1000.00, was requested 1000.00 out of total 1000.00 (100.00%)
95.10: [Host #0] MIPS for VM #0 by PEs (1 * 1000.0). PE #0: 1000.00.

95.10: Host #1



100.10: Host #0
100.10: Host #0 utilization is 100.00%
100.10: Host #0 energy is 1250.00 W*sec
100.10: Host #1
100.10: Host #1 utilization is 0.00%
100.10: Host #1 energy is 1250.00 W*sec

100.10: Consumed energy is 2500.00 W*sec



--------------------------------------------------------------



100.10: Host #0
100.10: [Host #0] Total allocated MIPS for VM #0 (Host #0) is 1000.00, was requested 1000.00 out of total 1000.00 (100.00%)
100.10: [Host #0] MIPS for VM #0 by PEs (1 * 1000.0). PE #0: 1000.00.

100.10: Host #1

100.1: Broker: Cloudlet 0 received
100.1: Broker: All Cloudlets executed. Finishing...
100.1: Broker: Destroying VM #0
Broker is shutting down...
Simulation: No more future events
CloudInformationService: Notify all CloudSim entities for shutting down.
Datacenter_0 is shutting down...
Broker is shutting down...
Simulation completed.
Received 1 cloudlets
Simulation completed.

========== OUTPUT ==========
Cloudlet ID	STATUS	Resource ID	VM ID	Time	Start Time	Finish Time
	0	SUCCESS		2	0	100	0.1		100.1

Total simulation time: 100.10 sec
Energy consumption on datacenter0: 0.01390 kWh 
Number of VM migrations on datacenter0: 0 
Host0 power: 250.0
Host0 utilization: 1000.0
Host1 power: 0.0
Host1 utilization: 0.0

Not Power Aware in Cloudsim3.0 by Linda J finished!
